{
  "ipcMode": null,
  "executionRoleArn": "arn:aws:iam::376085786631:role/hackathon-wargaming-web-backend-task-execution-role",
  "containerDefinitions": [
    {
      "dnsSearchDomains": null,
      "environmentFiles": [],
      "logConfiguration": {
        "logDriver": "awslogs",
        "secretOptions": null,
        "options": {
          "awslogs-group": "hackathon-wargaming-web-backend",
          "awslogs-region": "eu-central-1",
          "awslogs-stream-prefix": "container"
        }
      },
      "entryPoint": null,
      "portMappings":
      [
          {
              "containerPort": 8000,
              "hostPort": 8000,
              "protocol": "tcp"
          }
      ],
      "command": [],
      "linuxParameters": null,
      "cpu": 0,
      "environment": [],
      "resourceRequirements": null,
      "ulimits": null,
      "dnsServers": null,
      "mountPoints": [],
      "workingDirectory": null,
      "secrets": null,
      "dockerSecurityOptions": null,
      "memory": null,
      "memoryReservation": null,
      "volumesFrom": [],
      "stopTimeout": null,
      "image": "376085786631.dkr.ecr.eu-central-1.amazonaws.com/hackathon-wargaming-web-backend:latest",
      "startTimeout": null,
      "firelensConfiguration": null,
      "dependsOn": null,
      "disableNetworking": null,
      "interactive": null,
      "healthCheck": null,
      "essential": true,
      "links": null,
      "hostname": null,
      "extraHosts": null,
      "pseudoTerminal": null,
      "user": null,
      "readonlyRootFilesystem": null,
      "dockerLabels": null,
      "systemControls": null,
      "privileged": null,
      "name": "hackathon-wargaming-web-backend"
    }
  ],
  "placementConstraints": [],
  "memory": "1024",
  "taskRoleArn": "arn:aws:iam::376085786631:role/hackathon-wargaming-web-backend-task-role",
  "compatibilities": [
    "EC2",
    "FARGATE"
  ],
  "taskDefinitionArn": "arn:aws:ecs:eu-central-1:376085786631:task-definition/hackathon-wargaming-web-backend:latest",
  "family": "hackathon-wargaming-web-backend",
  "requiresAttributes": [
    {
      "name": "com.amazonaws.ecs.capability.logging-driver.awslogs"
    },
    {
      "name": "ecs.capability.execution-role-awslogs"
    },
    {
      "name": "com.amazonaws.ecs.capability.ecr-auth"
    },
    {
      "name": "com.amazonaws.ecs.capability.docker-remote-api.1.19"
    },
    {
      "name": "com.amazonaws.ecs.capability.task-iam-role"
    },
    {
      "name": "ecs.capability.execution-role-ecr-pull"
    },
    {
      "name": "com.amazonaws.ecs.capability.docker-remote-api.1.18"
    },
    {
      "name": "ecs.capability.task-eni"
    }
  ],
  "pidMode": null,
  "requiresCompatibilities": [
    "FARGATE"
  ],
  "networkMode": "awsvpc",
  "cpu": "512",
  "inferenceAccelerators": null,
  "proxyConfiguration": null,
  "volumes": []
}
